{
  "parserOptions": {
    "sourceType": "module"
  },
  "rules": {
    "node/no-unsupported-features/es-syntax": [
      "error",
      {
        "version": ">=10",
        "ignores": ["modules"]
      }
    ]
  }
}
